Library\Bee\artifacts\mvdfrm\Unity.2D.Common.Runtime.ref.dll_77798F371487C3E9.mvfrm
Library\Bee\artifacts\mvdfrm\Unity.Burst.ref.dll_F30DFA20C0DD1968.mvfrm
Library\Bee\artifacts\mvdfrm\Unity.Mathematics.ref.dll_E8EFDB1B8D5C174E.mvfrm
Library\Bee\artifacts\mvdfrm\UnityEditor.UI.ref.dll_4C98D3F7040CD4F5.mvfrm
Library\Bee\artifacts\mvdfrm\UnityEngine.UI.ref.dll_08FEAA520A2EFD60.mvfrm
Library\Bee\artifacts\mvdfrm\UnityEditor.Graphs.dll_F3AFD7C0233F1A55.mvfrm
Library\Bee\artifacts\mvdfrm\UnityEditor.CoreModule.dll_CCD227AE64C77323.mvfrm
Library\Bee\artifacts\mvdfrm\UnityEditor.DeviceSimulatorModule.dll_7AF849E9862E190E.mvfrm
Library\Bee\artifacts\mvdfrm\UnityEditor.DiagnosticsModule.dll_7A762F41631457DC.mvfrm
Library\Bee\artifacts\mvdfrm\UnityEditor.dll_603C3BCF2952AD02.mvfrm
Library\Bee\artifacts\mvdfrm\UnityEditor.GraphViewModule.dll_DA8C2E8555F91833.mvfrm
Library\Bee\artifacts\mvdfrm\UnityEditor.PackageManagerUIModule.dll_A99312E35727C2BF.mvfrm
Library\Bee\artifacts\mvdfrm\UnityEditor.QuickSearchModule.dll_0585B04EBBEB5435.mvfrm
Library\Bee\artifacts\mvdfrm\UnityEditor.SceneTemplateModule.dll_8F94208C42B55B56.mvfrm
Library\Bee\artifacts\mvdfrm\UnityEditor.TextCoreFontEngineModule.dll_F3B0A58D4323C141.mvfrm
Library\Bee\artifacts\mvdfrm\UnityEditor.TextCoreTextEngineModule.dll_3B98DBFED2A77A5F.mvfrm
Library\Bee\artifacts\mvdfrm\UnityEditor.UIBuilderModule.dll_2F14DBA1C8B19167.mvfrm
Library\Bee\artifacts\mvdfrm\UnityEditor.UIElementsModule.dll_2643EC2A53799D7F.mvfrm
Library\Bee\artifacts\mvdfrm\UnityEditor.UIElementsSamplesModule.dll_E3467B568C2C00DE.mvfrm
Library\Bee\artifacts\mvdfrm\UnityEditor.UIServiceModule.dll_6806ED04B1E8E181.mvfrm
Library\Bee\artifacts\mvdfrm\UnityEditor.UnityConnectModule.dll_28D04D00525AB359.mvfrm
Library\Bee\artifacts\mvdfrm\UnityEngine.AccessibilityModule.dll_C2398C23432B82F3.mvfrm
Library\Bee\artifacts\mvdfrm\UnityEngine.AIModule.dll_DA1BF8294C1BBB17.mvfrm
Library\Bee\artifacts\mvdfrm\UnityEngine.AndroidJNIModule.dll_A48CD4FD9C990C55.mvfrm
Library\Bee\artifacts\mvdfrm\UnityEngine.AnimationModule.dll_A911AAAE3055ECD9.mvfrm
Library\Bee\artifacts\mvdfrm\UnityEngine.ARModule.dll_938EBD2CA93919E0.mvfrm
Library\Bee\artifacts\mvdfrm\UnityEngine.AssetBundleModule.dll_496EE3401E520927.mvfrm
Library\Bee\artifacts\mvdfrm\UnityEngine.AudioModule.dll_A63BF502DE26EF8B.mvfrm
Library\Bee\artifacts\mvdfrm\UnityEngine.ClothModule.dll_0D2451FDB843CE6F.mvfrm
Library\Bee\artifacts\mvdfrm\UnityEngine.ClusterInputModule.dll_A86CC21603E2861F.mvfrm
Library\Bee\artifacts\mvdfrm\UnityEngine.ClusterRendererModule.dll_80A50C5AF5E92692.mvfrm
Library\Bee\artifacts\mvdfrm\UnityEngine.CoreModule.dll_EFF2FB010CCCDE4E.mvfrm
Library\Bee\artifacts\mvdfrm\UnityEngine.CrashReportingModule.dll_A89883D5363E6EA6.mvfrm
Library\Bee\artifacts\mvdfrm\UnityEngine.DirectorModule.dll_7F4DBE604A514FEB.mvfrm
Library\Bee\artifacts\mvdfrm\UnityEngine.dll_92E082A787C639E7.mvfrm
Library\Bee\artifacts\mvdfrm\UnityEngine.DSPGraphModule.dll_849F1FC9BCB2210C.mvfrm
Library\Bee\artifacts\mvdfrm\UnityEngine.GameCenterModule.dll_CEDA1F1862D9FD46.mvfrm
Library\Bee\artifacts\mvdfrm\UnityEngine.GIModule.dll_72584136E7CAA331.mvfrm
Library\Bee\artifacts\mvdfrm\UnityEngine.GridModule.dll_CD6416EF25217445.mvfrm
Library\Bee\artifacts\mvdfrm\UnityEngine.HotReloadModule.dll_2A5A68B40B89085B.mvfrm
Library\Bee\artifacts\mvdfrm\UnityEngine.ImageConversionModule.dll_EC970A0B780DDE86.mvfrm
Library\Bee\artifacts\mvdfrm\UnityEngine.IMGUIModule.dll_DE9B9469A458836C.mvfrm
Library\Bee\artifacts\mvdfrm\UnityEngine.InputLegacyModule.dll_DAB3FE5EB643BF18.mvfrm
Library\Bee\artifacts\mvdfrm\UnityEngine.InputModule.dll_0CB1BCB3545F142F.mvfrm
Library\Bee\artifacts\mvdfrm\UnityEngine.JSONSerializeModule.dll_2251155F4266E37D.mvfrm
Library\Bee\artifacts\mvdfrm\UnityEngine.LocalizationModule.dll_E6B98C689B5E7918.mvfrm
Library\Bee\artifacts\mvdfrm\UnityEngine.ParticleSystemModule.dll_FBAACD21A44FFA34.mvfrm
Library\Bee\artifacts\mvdfrm\UnityEngine.PerformanceReportingModule.dll_3B4FD1485DDA410D.mvfrm
Library\Bee\artifacts\mvdfrm\UnityEngine.Physics2DModule.dll_F5B79A9ED152E46E.mvfrm
Library\Bee\artifacts\mvdfrm\UnityEngine.PhysicsModule.dll_B588319E6CA7C9BC.mvfrm
Library\Bee\artifacts\mvdfrm\UnityEngine.ProfilerModule.dll_B193F796E3AAD6F8.mvfrm
Library\Bee\artifacts\mvdfrm\UnityEngine.RuntimeInitializeOnLoadManagerInitializerModule.dll_DC812E76A51E3137.mvfrm
Library\Bee\artifacts\mvdfrm\UnityEngine.ScreenCaptureModule.dll_3C38C2E456D30FDF.mvfrm
Library\Bee\artifacts\mvdfrm\UnityEngine.SharedInternalsModule.dll_70A848E0EF3BD9D6.mvfrm
Library\Bee\artifacts\mvdfrm\UnityEngine.SpriteMaskModule.dll_B80691A8844992C0.mvfrm
Library\Bee\artifacts\mvdfrm\UnityEngine.SpriteShapeModule.dll_62D0109AD3F44131.mvfrm
Library\Bee\artifacts\mvdfrm\UnityEngine.StreamingModule.dll_5DA697FE7FDDA417.mvfrm
Library\Bee\artifacts\mvdfrm\UnityEngine.SubstanceModule.dll_3A51AC47CB30A225.mvfrm
Library\Bee\artifacts\mvdfrm\UnityEngine.SubsystemsModule.dll_22B3F80A52917AD3.mvfrm
Library\Bee\artifacts\mvdfrm\UnityEngine.TerrainModule.dll_CFCEAD0D426612AA.mvfrm
Library\Bee\artifacts\mvdfrm\UnityEngine.TerrainPhysicsModule.dll_FC2575F4BD92F4C1.mvfrm
Library\Bee\artifacts\mvdfrm\UnityEngine.TextCoreFontEngineModule.dll_721020E05621800C.mvfrm
Library\Bee\artifacts\mvdfrm\UnityEngine.TextCoreTextEngineModule.dll_B9F85751E5A5392A.mvfrm
Library\Bee\artifacts\mvdfrm\UnityEngine.TextRenderingModule.dll_657834EF0E0A8FD4.mvfrm
Library\Bee\artifacts\mvdfrm\UnityEngine.TilemapModule.dll_6ECB148E5A22F3B3.mvfrm
Library\Bee\artifacts\mvdfrm\UnityEngine.TLSModule.dll_D27E5AFFD0EF4B90.mvfrm
Library\Bee\artifacts\mvdfrm\UnityEngine.UIElementsModule.dll_26F2597255BDB6CA.mvfrm
Library\Bee\artifacts\mvdfrm\UnityEngine.UIElementsNativeModule.dll_F40CC778C8A032E1.mvfrm
Library\Bee\artifacts\mvdfrm\UnityEngine.UIModule.dll_D58F9656A862C0C3.mvfrm
Library\Bee\artifacts\mvdfrm\UnityEngine.UmbraModule.dll_2110A11B6B4D9AFE.mvfrm
Library\Bee\artifacts\mvdfrm\UnityEngine.UNETModule.dll_829942EA59DBD3C7.mvfrm
Library\Bee\artifacts\mvdfrm\UnityEngine.UnityAnalyticsModule.dll_1B4A3DEB50774C30.mvfrm
Library\Bee\artifacts\mvdfrm\UnityEngine.UnityConnectModule.dll_162FD10F4CE2B404.mvfrm
Library\Bee\artifacts\mvdfrm\UnityEngine.UnityCurlModule.dll_DC2E4BDFA069DEC6.mvfrm
Library\Bee\artifacts\mvdfrm\UnityEngine.UnityTestProtocolModule.dll_9F093148E6275634.mvfrm
Library\Bee\artifacts\mvdfrm\UnityEngine.UnityWebRequestAssetBundleModule.dll_5A63336E9A171301.mvfrm
Library\Bee\artifacts\mvdfrm\UnityEngine.UnityWebRequestAudioModule.dll_B34C2526E4450BA5.mvfrm
Library\Bee\artifacts\mvdfrm\UnityEngine.UnityWebRequestModule.dll_FE3611B583027905.mvfrm
Library\Bee\artifacts\mvdfrm\UnityEngine.UnityWebRequestTextureModule.dll_0D313F96CBD2B81A.mvfrm
Library\Bee\artifacts\mvdfrm\UnityEngine.UnityWebRequestWWWModule.dll_84BA9CADD564F596.mvfrm
Library\Bee\artifacts\mvdfrm\UnityEngine.VehiclesModule.dll_F710B7DFC47B1F86.mvfrm
Library\Bee\artifacts\mvdfrm\UnityEngine.VFXModule.dll_535CF36EA75CB4FD.mvfrm
Library\Bee\artifacts\mvdfrm\UnityEngine.VideoModule.dll_CB45796DA0B90B30.mvfrm
Library\Bee\artifacts\mvdfrm\UnityEngine.VirtualTexturingModule.dll_18997BE7A14EB36C.mvfrm
Library\Bee\artifacts\mvdfrm\UnityEngine.VRModule.dll_2861BCDC4A1D463B.mvfrm
Library\Bee\artifacts\mvdfrm\UnityEngine.WindModule.dll_6641D6299E035CB7.mvfrm
Library\Bee\artifacts\mvdfrm\UnityEngine.XRModule.dll_5B207FE0D3579399.mvfrm
Library\Bee\artifacts\mvdfrm\Unity.Android.Gradle.dll_BE2D8AD85B464E8B.mvfrm
Library\Bee\artifacts\mvdfrm\Unity.Android.Types.dll_7429BBBC0E276CE1.mvfrm
Library\Bee\artifacts\mvdfrm\UnityEditor.Android.Extensions.dll_37A53226C77EFFAB.mvfrm
Library\Bee\artifacts\mvdfrm\UnityEditor.WebGL.Extensions.dll_1BD1665BAE25F53D.mvfrm
Library\Bee\artifacts\mvdfrm\UnityEditor.WindowsStandalone.Extensions.dll_47731DB5579CBBAD.mvfrm
Library\Bee\artifacts\mvdfrm\Unity.Burst.Cecil.dll_4F4B44A2BAFE0026.mvfrm
Library\Bee\artifacts\mvdfrm\Unity.Burst.Cecil.Mdb.dll_4F6D4B9551BD1CE3.mvfrm
Library\Bee\artifacts\mvdfrm\Unity.Burst.Cecil.Pdb.dll_66BFC404D0721E66.mvfrm
Library\Bee\artifacts\mvdfrm\Unity.Burst.Cecil.Rocks.dll_314F7711484F0746.mvfrm
Library\Bee\artifacts\mvdfrm\Unity.Burst.Unsafe.dll_590B9B9E6AAC4C8D.mvfrm
Library\Bee\artifacts\mvdfrm\Unity.Plastic.Antlr3.Runtime.dll_C9707B2BAB1D2A3C.mvfrm
Library\Bee\artifacts\mvdfrm\Unity.Plastic.Newtonsoft.Json.dll_F64F04E481E42139.mvfrm